{
  "docs": [
    {
      "links": {
        "patch": {
          "small": "https://images2.imgbox.com/f8/27/XwZPEhTJ_o.png",
          "large": "https://images2.imgbox.com/ae/62/D6SZleUG_o.png"
        }
      },
      "success": true,
      "failures": [],
      "name": "CASSIOPE",
      "date_local": "2013-09-29T09:00:00-07:00",
      "upcoming": false,
      "id": "5eb87ce1ffd86e000604b334"
    },
    {
      "links": {
        "patch": {
          "small": "https://images2.imgbox.com/4e/f8/rqu7XWMF_o.png",
          "large": "https://images2.imgbox.com/41/b7/H6vprzuB_o.png"
        }
      },
      "success": true,
      "failures": [],
      "name": "SES-8",
      "date_local": "2013-12-03T18:41:00-04:00",
      "upcoming": false,
      "id": "5eb87ce2ffd86e000604b335"
    },
    {
      "links": {
        "patch": {
          "small": "https://images2.imgbox.com/5c/20/AsqTXJDC_o.png",
          "large": "https://images2.imgbox.com/f5/fa/JvLWfNZz_o.png"
        }
      },
      "success": true,
      "failures": [],
      "name": "Thaicom 6",
      "date_local": "2014-01-06T14:06:00-04:00",
      "upcoming": false,
      "id": "5eb87ce3ffd86e000604b336"
    },
    {
      "links": {
        "patch": {
          "small": "https://images2.imgbox.com/ae/3c/yVvE2vVh_o.png",
          "large": "https://images2.imgbox.com/82/c7/bbs0gt88_o.png"
        }
      },
      "success": true,
      "failures": [],
      "name": "CRS-3",
      "date_local": "2014-04-18T15:25:00-04:00",
      "upcoming": false,
      "id": "5eb87ce4ffd86e000604b337"
    },
    {
      "links": {
        "patch": {
          "small": "https://images2.imgbox.com/a4/44/YWAUBkOe_o.png",
          "large": "https://images2.imgbox.com/fd/41/FUnfqHHH_o.png"
        }
      },
      "success": true,
      "failures": [],
      "name": "OG-2 Mission 1",
      "date_local": "2014-07-14T11:15:00-04:00",
      "upcoming": false,
      "id": "5eb87ce4ffd86e000604b338"
    },
    {
      "links": {
        "patch": {
          "small": "https://images2.imgbox.com/dd/4d/szidadu8_o.png",
          "large": "https://images2.imgbox.com/60/3f/hwK01Qce_o.png"
        }
      },
      "success": true,
      "failures": [],
      "name": "AsiaSat 8",
      "date_local": "2014-08-05T04:00:00-04:00",
      "upcoming": false,
      "id": "5eb87ce5ffd86e000604b339"
    },
    {
      "links": {
        "patch": {
          "small": "https://images2.imgbox.com/d4/ea/jdJqr6He_o.png",
          "large": "https://images2.imgbox.com/5a/f0/b3TgnmVr_o.png"
        }
      },
      "success": true,
      "failures": [],
      "name": "AsiaSat 6",
      "date_local": "2014-09-07T01:00:00-04:00",
      "upcoming": false,
      "id": "5eb87ce6ffd86e000604b33a"
    },
    {
      "links": {
        "patch": {
          "small": "https://images2.imgbox.com/7b/fb/Mm0LdwGY_o.png",
          "large": "https://images2.imgbox.com/21/13/ps1yJZFD_o.png"
        }
      },
      "success": true,
      "failures": [],
      "name": "CRS-4",
      "date_local": "2014-09-21T01:52:00-04:00",
      "upcoming": false,
      "id": "5eb87ce7ffd86e000604b33b"
    },
    {
      "links": {
        "patch": {
          "small": "https://images2.imgbox.com/df/53/3Ik1KR2O_o.png",
          "large": "https://images2.imgbox.com/ed/f3/MdEzr8rE_o.png"
        }
      },
      "success": true,
      "failures": [],
      "name": "CRS-5",
      "date_local": "2015-01-10T05:47:00-04:00",
      "upcoming": false,
      "id": "5eb87ce8ffd86e000604b33c"
    },
    {
      "links": {
        "patch": {
          "small": "https://images2.imgbox.com/bc/a6/uDYvXvql_o.png",
          "large": "https://images2.imgbox.com/30/47/WmtGcjW8_o.png"
        }
      },
      "success": true,
      "failures": [],
      "name": "DSCOVR",
      "date_local": "2015-02-11T19:03:00-04:00",
      "upcoming": false,
      "id": "5eb87ceaffd86e000604b33d"
    }
  ],
  "totalDocs": 205,
  "limit": 10,
  "totalPages": 21,
  "page": 2,
  "pagingCounter": 11,
  "hasPrevPage": true,
  "hasNextPage": true,
  "prevPage": 1,
  "nextPage": 3
}
