{
  "docs": [
    {
      "links": {
        "patch": {
          "small": "https://images2.imgbox.com/94/f2/NN6Ph45r_o.png",
          "large": "https://images2.imgbox.com/5b/02/QcxHUb5V_o.png"
        }
      },
      "success": false,
      "failures": [
        {
          "time": 33,
          "altitude": null,
          "reason": "merlin engine failure"
        }
      ],
      "name": "FalconSat",
      "date_local": "2006-03-25T10:30:00+12:00",
      "upcoming": false,
      "id": "5eb87cd9ffd86e000604b32a"
    },
    {
      "links": {
        "patch": {
          "small": "https://images2.imgbox.com/f9/4a/ZboXReNb_o.png",
          "large": "https://images2.imgbox.com/80/a2/bkWotCIS_o.png"
        }
      },
      "success": false,
      "failures": [
        {
          "time": 301,
          "altitude": 289,
          "reason": "harmonic oscillation leading to premature engine shutdown"
        }
      ],
      "name": "DemoSat",
      "date_local": "2007-03-21T13:10:00+12:00",
      "upcoming": false,
      "id": "5eb87cdaffd86e000604b32b"
    },
    {
      "links": {
        "patch": {
          "small": "https://images2.imgbox.com/6c/cb/na1tzhHs_o.png",
          "large": "https://images2.imgbox.com/4a/80/k1oAkY0k_o.png"
        }
      },
      "success": false,
      "failures": [
        {
          "time": 140,
          "altitude": 35,
          "reason": "residual stage-1 thrust led to collision between stage 1 and stage 2"
        }
      ],
      "name": "Trailblazer",
      "date_local": "2008-08-03T15:34:00+12:00",
      "upcoming": false,
      "id": "5eb87cdbffd86e000604b32c"
    },
    {
      "links": {
        "patch": {
          "small": "https://images2.imgbox.com/95/39/sRqN7rsv_o.png",
          "large": "https://images2.imgbox.com/a3/99/qswRYzE8_o.png"
        }
      },
      "success": true,
      "failures": [],
      "name": "RatSat",
      "date_local": "2008-09-28T11:15:00+12:00",
      "upcoming": false,
      "id": "5eb87cdbffd86e000604b32d"
    },
    {
      "links": {
        "patch": {
          "small": "https://images2.imgbox.com/ab/5a/Pequxd5d_o.png",
          "large": "https://images2.imgbox.com/92/e4/7Cf6MLY0_o.png"
        }
      },
      "success": true,
      "failures": [],
      "name": "RazakSat",
      "date_local": "2009-07-13T15:35:00+12:00",
      "upcoming": false,
      "id": "5eb87cdcffd86e000604b32e"
    },
    {
      "links": {
        "patch": {
          "small": "https://images2.imgbox.com/73/7f/u7BKqv2C_o.png",
          "large": "https://images2.imgbox.com/66/b4/8KZsjbt4_o.png"
        }
      },
      "success": true,
      "failures": [],
      "name": "Falcon 9 Test Flight",
      "date_local": "2010-06-04T14:45:00-04:00",
      "upcoming": false,
      "id": "5eb87cddffd86e000604b32f"
    },
    {
      "links": {
        "patch": {
          "small": "https://images2.imgbox.com/fa/dc/FOUDQ0Sn_o.png",
          "large": "https://images2.imgbox.com/04/6e/kniggvWD_o.png"
        }
      },
      "success": true,
      "failures": [],
      "name": "COTS 1",
      "date_local": "2010-12-08T11:43:00-04:00",
      "upcoming": false,
      "id": "5eb87cdeffd86e000604b330"
    },
    {
      "links": {
        "patch": {
          "small": "https://images2.imgbox.com/c5/f4/XfLVgbaO_o.png",
          "large": "https://images2.imgbox.com/94/8d/YnZ1SLsT_o.png"
        }
      },
      "success": true,
      "failures": [],
      "name": "COTS 2",
      "date_local": "2012-05-22T03:44:00-04:00",
      "upcoming": false,
      "id": "5eb87cdfffd86e000604b331"
    },
    {
      "links": {
        "patch": {
          "small": "https://images2.imgbox.com/3e/91/hlGiK49a_o.png",
          "large": "https://images2.imgbox.com/fb/42/0V9JgYQS_o.png"
        }
      },
      "success": true,
      "failures": [],
      "name": "CRS-1",
      "date_local": "2012-10-08T20:35:00-04:00",
      "upcoming": false,
      "id": "5eb87ce0ffd86e000604b332"
    },
    {
      "links": {
        "patch": {
          "small": "https://images2.imgbox.com/bd/fe/lXUYKL28_o.png",
          "large": "https://images2.imgbox.com/bc/c5/fHN3m8KV_o.png"
        }
      },
      "success": true,
      "failures": [],
      "name": "CRS-2",
      "date_local": "2013-03-01T15:10:00-04:00",
      "upcoming": false,
      "id": "5eb87ce1ffd86e000604b333"
    }
  ],
  "totalDocs": 205,
  "offset": 0,
  "limit": 10,
  "totalPages": 21,
  "page": 1,
  "pagingCounter": 1,
  "hasPrevPage": false,
  "hasNextPage": true,
  "prevPage": null,
  "nextPage": 2
}
