{
  "docs": [
    {
      "links": {
        "patch": {
          "small": "https://images2.imgbox.com/94/f2/NN6Ph45r_o.png",
          "large": "https://images2.imgbox.com/5b/02/QcxHUb5V_o.png"
        }
      },
      "success": false,
      "failures": [
        {
          "time": 33,
          "altitude": null,
          "reason": "merlin engine failure"
        }
      ],
      "name": "FalconSat",
      "date_local": "2006-03-25T10:30:00+12:00",
      "upcoming": false,
      "id": "5eb87cd9ffd86e000604b32a"
    }
   
  ],
  "totalDocs": 205,
  "offset": 0,
  "limit": 10,
  "totalPages": 21,
  "page": 1,
  "pagingCounter": 1,
  "hasPrevPage": false,
  "hasNextPage": true,
  "prevPage": null,
  "nextPage": 2
}
